{
  "name": "RefKeyword",
  "base": "PersistedModel",
  "idInjection": true,
  "options": {
    "validateUpsert": true
  },
  "properties": {
    "name": {
      "type": "string",
      "required": true
    }
  },
  "validations": [],
  "relations": {
    "keywordExpressions": {
      "type": "hasMany",
      "model": "KeywordExpression",
      "foreignKey": ""
    }
  },
  "acls": [],
  "methods": {}
}
