{
  "_meta": {
    "sources": [
      "loopback/common/models",
      "loopback/server/models",
      "../common/models",
      "./models"
    ],
    "mixins": [
      "loopback/common/mixins",
      "loopback/server/mixins",
      "../common/mixins",
      "./mixins"
    ]
  },
  "User": {
    "dataSource": "db"
  },
  "AccessToken": {
    "dataSource": "db",
    "public": false
  },
  "ACL": {
    "dataSource": "db",
    "public": false
  },
  "RoleMapping": {
    "dataSource": "db",
    "public": false,
    "options": {
      "strictObjectIDCoercion": true
    }
  },
  "Role": {
    "dataSource": "db",
    "public": false
  },
  "Testcase": {
    "dataSource": "mongocloud",
    "public": true
  },
  "Issue": {
    "dataSource": "mongocloud",
    "public": true
  },
  "NLPConnector": {
    "dataSource": "mongocloud",
    "public": true
  },
  "RefKeyword": {
    "dataSource": "utmsdb",
    "public": true
  },
  "AutomatedTestcase": {
    "dataSource": "mongocloud",
    "public": true
  },
  "Time": {
    "dataSource": "mongocloud",
    "public": true
  },
  "TestcaseExecute": {
    "dataSource": "mongocloud",
    "public": true
  },
  "STestcase": {
    "dataSource": "mongocloud",
    "public": true
  },
  "UserStoryExecution": {
    "dataSource": "mongocloud",
    "public": true
  },
  "test_case": {
    "dataSource": "mysqldb",
    "public": true
  },
  "AutomatedTestcaseGenerator": {
    "dataSource": "mongocloud",
    "public": true
  },
  "ManualTestcase": {
    "dataSource": "mongocloud",
    "public": true
  },
  "KeywordExpression": {
    "dataSource": "mongocloud",
    "public": true
  },
  "Product": {
    "dataSource": "mongocloud",
    "public": true
  },
  "XPathCreator": {
    "dataSource": "mongocloud",
    "public": true
  },
  "AIModel": {
    "dataSource": "mongocloud",
    "public": true
  },
  "ObjectRepo": {
    "dataSource": "utmsdb",
    "public": true
  },
  "jira_user_story": {
    "dataSource": "utmsdb",
    "public": true
  }
}
